^C:\USERS\ACBROWN\DESKTOP\FRAMEWORK\STDAFX.CPP
/c /IC:\USERS\ACBROWN\DESKTOP\FRAMEWORK\/INCLUDE /ZI /nologo /W3 /WX- /Od /Oy- /D WIN32 /D _DEBUG /D _WINDOWS /D _MBCS /Gm /EHsc /RTC1 /MDd /GS /fp:precise /Zc:wchar_t /Zc:forScope /Zc:inline /Yc"stdafx.h" /Fp"C:\USERS\ACBROWN\DESKTOP\FRAMEWORK\DEBUG\RM_FRAMEWORK.PCH" /Fo"C:\USERS\ACBROWN\DESKTOP\FRAMEWORK\DEBUG\\" /Fd"C:\USERS\ACBROWN\DESKTOP\FRAMEWORK\DEBUG\RM_FRAMEWORK.PDB" /Gd /TP /analyze- C:\USERS\ACBROWN\DESKTOP\FRAMEWORK\STDAFX.CPP
^C:\USERS\ACBROWN\DESKTOP\FRAMEWORK\SRC\AGENTBEHAVIOR.CPP
/c /IC:\USERS\ACBROWN\DESKTOP\FRAMEWORK\/INCLUDE /ZI /nologo /W3 /WX- /Od /Oy- /D WIN32 /D _DEBUG /D _WINDOWS /D _MBCS /Gm /EHsc /RTC1 /MDd /GS /fp:precise /Zc:wchar_t /Zc:forScope /Zc:inline /Yu"stdafx.h" /Fp"C:\USERS\ACBROWN\DESKTOP\FRAMEWORK\DEBUG\RM_FRAMEWORK.PCH" /Fo"C:\USERS\ACBROWN\DESKTOP\FRAMEWORK\DEBUG\\" /Fd"C:\USERS\ACBROWN\DESKTOP\FRAMEWORK\DEBUG\RM_FRAMEWORK.PDB" /Gd /TP /analyze- C:\USERS\ACBROWN\DESKTOP\FRAMEWORK\SRC\AGENTBEHAVIOR.CPP
^C:\USERS\ACBROWN\DESKTOP\FRAMEWORK\SRC\C3DSHAPE.CPP
/c /IC:\USERS\ACBROWN\DESKTOP\FRAMEWORK\/INCLUDE /ZI /nologo /W3 /WX- /Od /Oy- /D WIN32 /D _DEBUG /D _WINDOWS /D _MBCS /Gm /EHsc /RTC1 /MDd /GS /fp:precise /Zc:wchar_t /Zc:forScope /Zc:inline /Yu"stdafx.h" /Fp"C:\USERS\ACBROWN\DESKTOP\FRAMEWORK\DEBUG\RM_FRAMEWORK.PCH" /Fo"C:\USERS\ACBROWN\DESKTOP\FRAMEWORK\DEBUG\\" /Fd"C:\USERS\ACBROWN\DESKTOP\FRAMEWORK\DEBUG\RM_FRAMEWORK.PDB" /Gd /TP /analyze- C:\USERS\ACBROWN\DESKTOP\FRAMEWORK\SRC\C3DSHAPE.CPP
^C:\USERS\ACBROWN\DESKTOP\FRAMEWORK\SRC\CAMERA.CPP
/c /IC:\USERS\ACBROWN\DESKTOP\FRAMEWORK\/INCLUDE /ZI /nologo /W3 /WX- /Od /Oy- /D WIN32 /D _DEBUG /D _WINDOWS /D _MBCS /Gm /EHsc /RTC1 /MDd /GS /fp:precise /Zc:wchar_t /Zc:forScope /Zc:inline /Yu"stdafx.h" /Fp"C:\USERS\ACBROWN\DESKTOP\FRAMEWORK\DEBUG\RM_FRAMEWORK.PCH" /Fo"C:\USERS\ACBROWN\DESKTOP\FRAMEWORK\DEBUG\\" /Fd"C:\USERS\ACBROWN\DESKTOP\FRAMEWORK\DEBUG\RM_FRAMEWORK.PDB" /Gd /TP /analyze- C:\USERS\ACBROWN\DESKTOP\FRAMEWORK\SRC\CAMERA.CPP
^C:\USERS\ACBROWN\DESKTOP\FRAMEWORK\SRC\COLOURMATERIAL.CPP
/c /IC:\USERS\ACBROWN\DESKTOP\FRAMEWORK\/INCLUDE /ZI /nologo /W3 /WX- /Od /Oy- /D WIN32 /D _DEBUG /D _WINDOWS /D _MBCS /Gm /EHsc /RTC1 /MDd /GS /fp:precise /Zc:wchar_t /Zc:forScope /Zc:inline /Yu"stdafx.h" /Fp"C:\USERS\ACBROWN\DESKTOP\FRAMEWORK\DEBUG\RM_FRAMEWORK.PCH" /Fo"C:\USERS\ACBROWN\DESKTOP\FRAMEWORK\DEBUG\\" /Fd"C:\USERS\ACBROWN\DESKTOP\FRAMEWORK\DEBUG\RM_FRAMEWORK.PDB" /Gd /TP /analyze- C:\USERS\ACBROWN\DESKTOP\FRAMEWORK\SRC\COLOURMATERIAL.CPP
^C:\USERS\ACBROWN\DESKTOP\FRAMEWORK\SRC\DEBUGLOG.CPP
/c /IC:\USERS\ACBROWN\DESKTOP\FRAMEWORK\/INCLUDE /ZI /nologo /W3 /WX- /Od /Oy- /D WIN32 /D _DEBUG /D _WINDOWS /D _MBCS /Gm /EHsc /RTC1 /MDd /GS /fp:precise /Zc:wchar_t /Zc:forScope /Zc:inline /Yu"stdafx.h" /Fp"C:\USERS\ACBROWN\DESKTOP\FRAMEWORK\DEBUG\RM_FRAMEWORK.PCH" /Fo"C:\USERS\ACBROWN\DESKTOP\FRAMEWORK\DEBUG\\" /Fd"C:\USERS\ACBROWN\DESKTOP\FRAMEWORK\DEBUG\RM_FRAMEWORK.PDB" /Gd /TP /analyze- C:\USERS\ACBROWN\DESKTOP\FRAMEWORK\SRC\DEBUGLOG.CPP
^C:\USERS\ACBROWN\DESKTOP\FRAMEWORK\SRC\FACECAMERABEHAVIOR.CPP
/c /IC:\USERS\ACBROWN\DESKTOP\FRAMEWORK\/INCLUDE /ZI /nologo /W3 /WX- /Od /Oy- /D WIN32 /D _DEBUG /D _WINDOWS /D _MBCS /Gm /EHsc /RTC1 /MDd /GS /fp:precise /Zc:wchar_t /Zc:forScope /Zc:inline /Yu"stdafx.h" /Fp"C:\USERS\ACBROWN\DESKTOP\FRAMEWORK\DEBUG\RM_FRAMEWORK.PCH" /Fo"C:\USERS\ACBROWN\DESKTOP\FRAMEWORK\DEBUG\\" /Fd"C:\USERS\ACBROWN\DESKTOP\FRAMEWORK\DEBUG\RM_FRAMEWORK.PDB" /Gd /TP /analyze- C:\USERS\ACBROWN\DESKTOP\FRAMEWORK\SRC\FACECAMERABEHAVIOR.CPP
^C:\USERS\ACBROWN\DESKTOP\FRAMEWORK\SRC\FPSCAMERABEHAVIOR.CPP
/c /IC:\USERS\ACBROWN\DESKTOP\FRAMEWORK\/INCLUDE /ZI /nologo /W3 /WX- /Od /Oy- /D WIN32 /D _DEBUG /D _WINDOWS /D _MBCS /Gm /EHsc /RTC1 /MDd /GS /fp:precise /Zc:wchar_t /Zc:forScope /Zc:inline /Yu"stdafx.h" /Fp"C:\USERS\ACBROWN\DESKTOP\FRAMEWORK\DEBUG\RM_FRAMEWORK.PCH" /Fo"C:\USERS\ACBROWN\DESKTOP\FRAMEWORK\DEBUG\\" /Fd"C:\USERS\ACBROWN\DESKTOP\FRAMEWORK\DEBUG\RM_FRAMEWORK.PDB" /Gd /TP /analyze- C:\USERS\ACBROWN\DESKTOP\FRAMEWORK\SRC\FPSCAMERABEHAVIOR.CPP
^C:\USERS\ACBROWN\DESKTOP\FRAMEWORK\SRC\GAME.CPP
/c /IC:\USERS\ACBROWN\DESKTOP\FRAMEWORK\/INCLUDE /ZI /nologo /W3 /WX- /Od /Oy- /D WIN32 /D _DEBUG /D _WINDOWS /D _MBCS /Gm /EHsc /RTC1 /MDd /GS /fp:precise /Zc:wchar_t /Zc:forScope /Zc:inline /Yu"stdafx.h" /Fp"C:\USERS\ACBROWN\DESKTOP\FRAMEWORK\DEBUG\RM_FRAMEWORK.PCH" /Fo"C:\USERS\ACBROWN\DESKTOP\FRAMEWORK\DEBUG\\" /Fd"C:\USERS\ACBROWN\DESKTOP\FRAMEWORK\DEBUG\RM_FRAMEWORK.PDB" /Gd /TP /analyze- C:\USERS\ACBROWN\DESKTOP\FRAMEWORK\SRC\GAME.CPP
^C:\USERS\ACBROWN\DESKTOP\FRAMEWORK\SRC\GAMEOBJECT.CPP
/c /IC:\USERS\ACBROWN\DESKTOP\FRAMEWORK\/INCLUDE /ZI /nologo /W3 /WX- /Od /Oy- /D WIN32 /D _DEBUG /D _WINDOWS /D _MBCS /Gm /EHsc /RTC1 /MDd /GS /fp:precise /Zc:wchar_t /Zc:forScope /Zc:inline /Yu"stdafx.h" /Fp"C:\USERS\ACBROWN\DESKTOP\FRAMEWORK\DEBUG\RM_FRAMEWORK.PCH" /Fo"C:\USERS\ACBROWN\DESKTOP\FRAMEWORK\DEBUG\\" /Fd"C:\USERS\ACBROWN\DESKTOP\FRAMEWORK\DEBUG\RM_FRAMEWORK.PDB" /Gd /TP /analyze- C:\USERS\ACBROWN\DESKTOP\FRAMEWORK\SRC\GAMEOBJECT.CPP
^C:\USERS\ACBROWN\DESKTOP\FRAMEWORK\SRC\GRAPHICS.CPP
/c /IC:\USERS\ACBROWN\DESKTOP\FRAMEWORK\/INCLUDE /ZI /nologo /W3 /WX- /Od /Oy- /D WIN32 /D _DEBUG /D _WINDOWS /D _MBCS /Gm /EHsc /RTC1 /MDd /GS /fp:precise /Zc:wchar_t /Zc:forScope /Zc:inline /Yu"stdafx.h" /Fp"C:\USERS\ACBROWN\DESKTOP\FRAMEWORK\DEBUG\RM_FRAMEWORK.PCH" /Fo"C:\USERS\ACBROWN\DESKTOP\FRAMEWORK\DEBUG\\" /Fd"C:\USERS\ACBROWN\DESKTOP\FRAMEWORK\DEBUG\RM_FRAMEWORK.PDB" /Gd /TP /analyze- C:\USERS\ACBROWN\DESKTOP\FRAMEWORK\SRC\GRAPHICS.CPP
^C:\USERS\ACBROWN\DESKTOP\FRAMEWORK\SRC\IBEHAVIOR.CPP
/c /IC:\USERS\ACBROWN\DESKTOP\FRAMEWORK\/INCLUDE /ZI /nologo /W3 /WX- /Od /Oy- /D WIN32 /D _DEBUG /D _WINDOWS /D _MBCS /Gm /EHsc /RTC1 /MDd /GS /fp:precise /Zc:wchar_t /Zc:forScope /Zc:inline /Yu"stdafx.h" /Fp"C:\USERS\ACBROWN\DESKTOP\FRAMEWORK\DEBUG\RM_FRAMEWORK.PCH" /Fo"C:\USERS\ACBROWN\DESKTOP\FRAMEWORK\DEBUG\\" /Fd"C:\USERS\ACBROWN\DESKTOP\FRAMEWORK\DEBUG\RM_FRAMEWORK.PDB" /Gd /TP /analyze- C:\USERS\ACBROWN\DESKTOP\FRAMEWORK\SRC\IBEHAVIOR.CPP
^C:\USERS\ACBROWN\DESKTOP\FRAMEWORK\SRC\ICOMPONENT.CPP
/c /IC:\USERS\ACBROWN\DESKTOP\FRAMEWORK\/INCLUDE /ZI /nologo /W3 /WX- /Od /Oy- /D WIN32 /D _DEBUG /D _WINDOWS /D _MBCS /Gm /EHsc /RTC1 /MDd /GS /fp:precise /Zc:wchar_t /Zc:forScope /Zc:inline /Yu"stdafx.h" /Fp"C:\USERS\ACBROWN\DESKTOP\FRAMEWORK\DEBUG\RM_FRAMEWORK.PCH" /Fo"C:\USERS\ACBROWN\DESKTOP\FRAMEWORK\DEBUG\\" /Fd"C:\USERS\ACBROWN\DESKTOP\FRAMEWORK\DEBUG\RM_FRAMEWORK.PDB" /Gd /TP /analyze- C:\USERS\ACBROWN\DESKTOP\FRAMEWORK\SRC\ICOMPONENT.CPP
^C:\USERS\ACBROWN\DESKTOP\FRAMEWORK\SRC\IMATERIAL.CPP
/c /IC:\USERS\ACBROWN\DESKTOP\FRAMEWORK\/INCLUDE /ZI /nologo /W3 /WX- /Od /Oy- /D WIN32 /D _DEBUG /D _WINDOWS /D _MBCS /Gm /EHsc /RTC1 /MDd /GS /fp:precise /Zc:wchar_t /Zc:forScope /Zc:inline /Yu"stdafx.h" /Fp"C:\USERS\ACBROWN\DESKTOP\FRAMEWORK\DEBUG\RM_FRAMEWORK.PCH" /Fo"C:\USERS\ACBROWN\DESKTOP\FRAMEWORK\DEBUG\\" /Fd"C:\USERS\ACBROWN\DESKTOP\FRAMEWORK\DEBUG\RM_FRAMEWORK.PDB" /Gd /TP /analyze- C:\USERS\ACBROWN\DESKTOP\FRAMEWORK\SRC\IMATERIAL.CPP
^C:\USERS\ACBROWN\DESKTOP\FRAMEWORK\SRC\IMOUSELISTENER.CPP
/c /IC:\USERS\ACBROWN\DESKTOP\FRAMEWORK\/INCLUDE /ZI /nologo /W3 /WX- /Od /Oy- /D WIN32 /D _DEBUG /D _WINDOWS /D _MBCS /Gm /EHsc /RTC1 /MDd /GS /fp:precise /Zc:wchar_t /Zc:forScope /Zc:inline /Yu"stdafx.h" /Fp"C:\USERS\ACBROWN\DESKTOP\FRAMEWORK\DEBUG\RM_FRAMEWORK.PCH" /Fo"C:\USERS\ACBROWN\DESKTOP\FRAMEWORK\DEBUG\\" /Fd"C:\USERS\ACBROWN\DESKTOP\FRAMEWORK\DEBUG\RM_FRAMEWORK.PDB" /Gd /TP /analyze- C:\USERS\ACBROWN\DESKTOP\FRAMEWORK\SRC\IMOUSELISTENER.CPP
^C:\USERS\ACBROWN\DESKTOP\FRAMEWORK\SRC\INPUT.CPP
/c /IC:\USERS\ACBROWN\DESKTOP\FRAMEWORK\/INCLUDE /ZI /nologo /W3 /WX- /Od /Oy- /D WIN32 /D _DEBUG /D _WINDOWS /D _MBCS /Gm /EHsc /RTC1 /MDd /GS /fp:precise /Zc:wchar_t /Zc:forScope /Zc:inline /Yu"stdafx.h" /Fp"C:\USERS\ACBROWN\DESKTOP\FRAMEWORK\DEBUG\RM_FRAMEWORK.PCH" /Fo"C:\USERS\ACBROWN\DESKTOP\FRAMEWORK\DEBUG\\" /Fd"C:\USERS\ACBROWN\DESKTOP\FRAMEWORK\DEBUG\RM_FRAMEWORK.PDB" /Gd /TP /analyze- C:\USERS\ACBROWN\DESKTOP\FRAMEWORK\SRC\INPUT.CPP
^C:\USERS\ACBROWN\DESKTOP\FRAMEWORK\SRC\IRENDERABLE.CPP
/c /IC:\USERS\ACBROWN\DESKTOP\FRAMEWORK\/INCLUDE /ZI /nologo /W3 /WX- /Od /Oy- /D WIN32 /D _DEBUG /D _WINDOWS /D _MBCS /Gm /EHsc /RTC1 /MDd /GS /fp:precise /Zc:wchar_t /Zc:forScope /Zc:inline /Yu"stdafx.h" /Fp"C:\USERS\ACBROWN\DESKTOP\FRAMEWORK\DEBUG\RM_FRAMEWORK.PCH" /Fo"C:\USERS\ACBROWN\DESKTOP\FRAMEWORK\DEBUG\\" /Fd"C:\USERS\ACBROWN\DESKTOP\FRAMEWORK\DEBUG\RM_FRAMEWORK.PDB" /Gd /TP /analyze- C:\USERS\ACBROWN\DESKTOP\FRAMEWORK\SRC\IRENDERABLE.CPP
^C:\USERS\ACBROWN\DESKTOP\FRAMEWORK\SRC\LITMATERIAL.CPP
/c /IC:\USERS\ACBROWN\DESKTOP\FRAMEWORK\/INCLUDE /ZI /nologo /W3 /WX- /Od /Oy- /D WIN32 /D _DEBUG /D _WINDOWS /D _MBCS /Gm /EHsc /RTC1 /MDd /GS /fp:precise /Zc:wchar_t /Zc:forScope /Zc:inline /Yu"stdafx.h" /Fp"C:\USERS\ACBROWN\DESKTOP\FRAMEWORK\DEBUG\RM_FRAMEWORK.PCH" /Fo"C:\USERS\ACBROWN\DESKTOP\FRAMEWORK\DEBUG\\" /Fd"C:\USERS\ACBROWN\DESKTOP\FRAMEWORK\DEBUG\RM_FRAMEWORK.PDB" /Gd /TP /analyze- C:\USERS\ACBROWN\DESKTOP\FRAMEWORK\SRC\LITMATERIAL.CPP
^C:\USERS\ACBROWN\DESKTOP\FRAMEWORK\SRC\MESHRENDERABLE.CPP
/c /IC:\USERS\ACBROWN\DESKTOP\FRAMEWORK\/INCLUDE /ZI /nologo /W3 /WX- /Od /Oy- /D WIN32 /D _DEBUG /D _WINDOWS /D _MBCS /Gm /EHsc /RTC1 /MDd /GS /fp:precise /Zc:wchar_t /Zc:forScope /Zc:inline /Yu"stdafx.h" /Fp"C:\USERS\ACBROWN\DESKTOP\FRAMEWORK\DEBUG\RM_FRAMEWORK.PCH" /Fo"C:\USERS\ACBROWN\DESKTOP\FRAMEWORK\DEBUG\\" /Fd"C:\USERS\ACBROWN\DESKTOP\FRAMEWORK\DEBUG\RM_FRAMEWORK.PDB" /Gd /TP /analyze- C:\USERS\ACBROWN\DESKTOP\FRAMEWORK\SRC\MESHRENDERABLE.CPP
^C:\USERS\ACBROWN\DESKTOP\FRAMEWORK\SRC\MISSILEBEHAVIOR.CPP
/c /IC:\USERS\ACBROWN\DESKTOP\FRAMEWORK\/INCLUDE /ZI /nologo /W3 /WX- /Od /Oy- /D WIN32 /D _DEBUG /D _WINDOWS /D _MBCS /Gm /EHsc /RTC1 /MDd /GS /fp:precise /Zc:wchar_t /Zc:forScope /Zc:inline /Yu"stdafx.h" /Fp"C:\USERS\ACBROWN\DESKTOP\FRAMEWORK\DEBUG\RM_FRAMEWORK.PCH" /Fo"C:\USERS\ACBROWN\DESKTOP\FRAMEWORK\DEBUG\\" /Fd"C:\USERS\ACBROWN\DESKTOP\FRAMEWORK\DEBUG\RM_FRAMEWORK.PDB" /Gd /TP /analyze- C:\USERS\ACBROWN\DESKTOP\FRAMEWORK\SRC\MISSILEBEHAVIOR.CPP
^C:\USERS\ACBROWN\DESKTOP\FRAMEWORK\SRC\MOUSEMANAGER.CPP
/c /IC:\USERS\ACBROWN\DESKTOP\FRAMEWORK\/INCLUDE /ZI /nologo /W3 /WX- /Od /Oy- /D WIN32 /D _DEBUG /D _WINDOWS /D _MBCS /Gm /EHsc /RTC1 /MDd /GS /fp:precise /Zc:wchar_t /Zc:forScope /Zc:inline /Yu"stdafx.h" /Fp"C:\USERS\ACBROWN\DESKTOP\FRAMEWORK\DEBUG\RM_FRAMEWORK.PCH" /Fo"C:\USERS\ACBROWN\DESKTOP\FRAMEWORK\DEBUG\\" /Fd"C:\USERS\ACBROWN\DESKTOP\FRAMEWORK\DEBUG\RM_FRAMEWORK.PDB" /Gd /TP /analyze- C:\USERS\ACBROWN\DESKTOP\FRAMEWORK\SRC\MOUSEMANAGER.CPP
^C:\USERS\ACBROWN\DESKTOP\FRAMEWORK\SRC\NODE.CPP
/c /IC:\USERS\ACBROWN\DESKTOP\FRAMEWORK\/INCLUDE /ZI /nologo /W3 /WX- /Od /Oy- /D WIN32 /D _DEBUG /D _WINDOWS /D _MBCS /Gm /EHsc /RTC1 /MDd /GS /fp:precise /Zc:wchar_t /Zc:forScope /Zc:inline /Yu"stdafx.h" /Fp"C:\USERS\ACBROWN\DESKTOP\FRAMEWORK\DEBUG\RM_FRAMEWORK.PCH" /Fo"C:\USERS\ACBROWN\DESKTOP\FRAMEWORK\DEBUG\\" /Fd"C:\USERS\ACBROWN\DESKTOP\FRAMEWORK\DEBUG\RM_FRAMEWORK.PDB" /Gd /TP /analyze- C:\USERS\ACBROWN\DESKTOP\FRAMEWORK\SRC\NODE.CPP
^C:\USERS\ACBROWN\DESKTOP\FRAMEWORK\SRC\PLAYERBEHAVIOR.CPP
/c /IC:\USERS\ACBROWN\DESKTOP\FRAMEWORK\/INCLUDE /ZI /nologo /W3 /WX- /Od /Oy- /D WIN32 /D _DEBUG /D _WINDOWS /D _MBCS /Gm /EHsc /RTC1 /MDd /GS /fp:precise /Zc:wchar_t /Zc:forScope /Zc:inline /Yu"stdafx.h" /Fp"C:\USERS\ACBROWN\DESKTOP\FRAMEWORK\DEBUG\RM_FRAMEWORK.PCH" /Fo"C:\USERS\ACBROWN\DESKTOP\FRAMEWORK\DEBUG\\" /Fd"C:\USERS\ACBROWN\DESKTOP\FRAMEWORK\DEBUG\RM_FRAMEWORK.PDB" /Gd /TP /analyze- C:\USERS\ACBROWN\DESKTOP\FRAMEWORK\SRC\PLAYERBEHAVIOR.CPP
^C:\USERS\ACBROWN\DESKTOP\FRAMEWORK\SRC\SKYBOXMATERIAL.CPP
/c /IC:\USERS\ACBROWN\DESKTOP\FRAMEWORK\/INCLUDE /ZI /nologo /W3 /WX- /Od /Oy- /D WIN32 /D _DEBUG /D _WINDOWS /D _MBCS /Gm /EHsc /RTC1 /MDd /GS /fp:precise /Zc:wchar_t /Zc:forScope /Zc:inline /Yu"stdafx.h" /Fp"C:\USERS\ACBROWN\DESKTOP\FRAMEWORK\DEBUG\RM_FRAMEWORK.PCH" /Fo"C:\USERS\ACBROWN\DESKTOP\FRAMEWORK\DEBUG\\" /Fd"C:\USERS\ACBROWN\DESKTOP\FRAMEWORK\DEBUG\RM_FRAMEWORK.PDB" /Gd /TP /analyze- C:\USERS\ACBROWN\DESKTOP\FRAMEWORK\SRC\SKYBOXMATERIAL.CPP
^C:\USERS\ACBROWN\DESKTOP\FRAMEWORK\SRC\SKYBOXRENDERABLE.CPP
/c /IC:\USERS\ACBROWN\DESKTOP\FRAMEWORK\/INCLUDE /ZI /nologo /W3 /WX- /Od /Oy- /D WIN32 /D _DEBUG /D _WINDOWS /D _MBCS /Gm /EHsc /RTC1 /MDd /GS /fp:precise /Zc:wchar_t /Zc:forScope /Zc:inline /Yu"stdafx.h" /Fp"C:\USERS\ACBROWN\DESKTOP\FRAMEWORK\DEBUG\RM_FRAMEWORK.PCH" /Fo"C:\USERS\ACBROWN\DESKTOP\FRAMEWORK\DEBUG\\" /Fd"C:\USERS\ACBROWN\DESKTOP\FRAMEWORK\DEBUG\RM_FRAMEWORK.PDB" /Gd /TP /analyze- C:\USERS\ACBROWN\DESKTOP\FRAMEWORK\SRC\SKYBOXRENDERABLE.CPP
^C:\USERS\ACBROWN\DESKTOP\FRAMEWORK\SRC\SPINBEHAVIOR.CPP
/c /IC:\USERS\ACBROWN\DESKTOP\FRAMEWORK\/INCLUDE /ZI /nologo /W3 /WX- /Od /Oy- /D WIN32 /D _DEBUG /D _WINDOWS /D _MBCS /Gm /EHsc /RTC1 /MDd /GS /fp:precise /Zc:wchar_t /Zc:forScope /Zc:inline /Yu"stdafx.h" /Fp"C:\USERS\ACBROWN\DESKTOP\FRAMEWORK\DEBUG\RM_FRAMEWORK.PCH" /Fo"C:\USERS\ACBROWN\DESKTOP\FRAMEWORK\DEBUG\\" /Fd"C:\USERS\ACBROWN\DESKTOP\FRAMEWORK\DEBUG\RM_FRAMEWORK.PDB" /Gd /TP /analyze- C:\USERS\ACBROWN\DESKTOP\FRAMEWORK\SRC\SPINBEHAVIOR.CPP
^C:\USERS\ACBROWN\DESKTOP\FRAMEWORK\SRC\SPRITE.CPP
/c /IC:\USERS\ACBROWN\DESKTOP\FRAMEWORK\/INCLUDE /ZI /nologo /W3 /WX- /Od /Oy- /D WIN32 /D _DEBUG /D _WINDOWS /D _MBCS /Gm /EHsc /RTC1 /MDd /GS /fp:precise /Zc:wchar_t /Zc:forScope /Zc:inline /Yu"stdafx.h" /Fp"C:\USERS\ACBROWN\DESKTOP\FRAMEWORK\DEBUG\RM_FRAMEWORK.PCH" /Fo"C:\USERS\ACBROWN\DESKTOP\FRAMEWORK\DEBUG\\" /Fd"C:\USERS\ACBROWN\DESKTOP\FRAMEWORK\DEBUG\RM_FRAMEWORK.PDB" /Gd /TP /analyze- C:\USERS\ACBROWN\DESKTOP\FRAMEWORK\SRC\SPRITE.CPP
^C:\USERS\ACBROWN\DESKTOP\FRAMEWORK\SRC\SPRITESHEETANIMATIONBEHAVIOR.CPP
/c /IC:\USERS\ACBROWN\DESKTOP\FRAMEWORK\/INCLUDE /ZI /nologo /W3 /WX- /Od /Oy- /D WIN32 /D _DEBUG /D _WINDOWS /D _MBCS /Gm /EHsc /RTC1 /MDd /GS /fp:precise /Zc:wchar_t /Zc:forScope /Zc:inline /Yu"stdafx.h" /Fp"C:\USERS\ACBROWN\DESKTOP\FRAMEWORK\DEBUG\RM_FRAMEWORK.PCH" /Fo"C:\USERS\ACBROWN\DESKTOP\FRAMEWORK\DEBUG\\" /Fd"C:\USERS\ACBROWN\DESKTOP\FRAMEWORK\DEBUG\RM_FRAMEWORK.PDB" /Gd /TP /analyze- C:\USERS\ACBROWN\DESKTOP\FRAMEWORK\SRC\SPRITESHEETANIMATIONBEHAVIOR.CPP
^C:\USERS\ACBROWN\DESKTOP\FRAMEWORK\SRC\TAGMANAGER.CPP
/c /IC:\USERS\ACBROWN\DESKTOP\FRAMEWORK\/INCLUDE /ZI /nologo /W3 /WX- /Od /Oy- /D WIN32 /D _DEBUG /D _WINDOWS /D _MBCS /Gm /EHsc /RTC1 /MDd /GS /fp:precise /Zc:wchar_t /Zc:forScope /Zc:inline /Yu"stdafx.h" /Fp"C:\USERS\ACBROWN\DESKTOP\FRAMEWORK\DEBUG\RM_FRAMEWORK.PCH" /Fo"C:\USERS\ACBROWN\DESKTOP\FRAMEWORK\DEBUG\\" /Fd"C:\USERS\ACBROWN\DESKTOP\FRAMEWORK\DEBUG\RM_FRAMEWORK.PDB" /Gd /TP /analyze- C:\USERS\ACBROWN\DESKTOP\FRAMEWORK\SRC\TAGMANAGER.CPP
^C:\USERS\ACBROWN\DESKTOP\FRAMEWORK\SRC\TERRAINRENDERABLE.CPP
/c /IC:\USERS\ACBROWN\DESKTOP\FRAMEWORK\/INCLUDE /ZI /nologo /W3 /WX- /Od /Oy- /D WIN32 /D _DEBUG /D _WINDOWS /D _MBCS /Gm /EHsc /RTC1 /MDd /GS /fp:precise /Zc:wchar_t /Zc:forScope /Zc:inline /Yu"stdafx.h" /Fp"C:\USERS\ACBROWN\DESKTOP\FRAMEWORK\DEBUG\RM_FRAMEWORK.PCH" /Fo"C:\USERS\ACBROWN\DESKTOP\FRAMEWORK\DEBUG\\" /Fd"C:\USERS\ACBROWN\DESKTOP\FRAMEWORK\DEBUG\RM_FRAMEWORK.PDB" /Gd /TP /analyze- C:\USERS\ACBROWN\DESKTOP\FRAMEWORK\SRC\TERRAINRENDERABLE.CPP
^C:\USERS\ACBROWN\DESKTOP\FRAMEWORK\SRC\TEXTURELOADER.CPP
/c /IC:\USERS\ACBROWN\DESKTOP\FRAMEWORK\/INCLUDE /ZI /nologo /W3 /WX- /Od /Oy- /D WIN32 /D _DEBUG /D _WINDOWS /D _MBCS /Gm /EHsc /RTC1 /MDd /GS /fp:precise /Zc:wchar_t /Zc:forScope /Zc:inline /Yu"stdafx.h" /Fp"C:\USERS\ACBROWN\DESKTOP\FRAMEWORK\DEBUG\RM_FRAMEWORK.PCH" /Fo"C:\USERS\ACBROWN\DESKTOP\FRAMEWORK\DEBUG\\" /Fd"C:\USERS\ACBROWN\DESKTOP\FRAMEWORK\DEBUG\RM_FRAMEWORK.PDB" /Gd /TP /analyze- C:\USERS\ACBROWN\DESKTOP\FRAMEWORK\SRC\TEXTURELOADER.CPP
^C:\USERS\ACBROWN\DESKTOP\FRAMEWORK\SRC\TIMER.CPP
/c /IC:\USERS\ACBROWN\DESKTOP\FRAMEWORK\/INCLUDE /ZI /nologo /W3 /WX- /Od /Oy- /D WIN32 /D _DEBUG /D _WINDOWS /D _MBCS /Gm /EHsc /RTC1 /MDd /GS /fp:precise /Zc:wchar_t /Zc:forScope /Zc:inline /Yu"stdafx.h" /Fp"C:\USERS\ACBROWN\DESKTOP\FRAMEWORK\DEBUG\RM_FRAMEWORK.PCH" /Fo"C:\USERS\ACBROWN\DESKTOP\FRAMEWORK\DEBUG\\" /Fd"C:\USERS\ACBROWN\DESKTOP\FRAMEWORK\DEBUG\RM_FRAMEWORK.PDB" /Gd /TP /analyze- C:\USERS\ACBROWN\DESKTOP\FRAMEWORK\SRC\TIMER.CPP
^C:\USERS\ACBROWN\DESKTOP\FRAMEWORK\SRC\TRANSFORM.CPP
/c /IC:\USERS\ACBROWN\DESKTOP\FRAMEWORK\/INCLUDE /ZI /nologo /W3 /WX- /Od /Oy- /D WIN32 /D _DEBUG /D _WINDOWS /D _MBCS /Gm /EHsc /RTC1 /MDd /GS /fp:precise /Zc:wchar_t /Zc:forScope /Zc:inline /Yu"stdafx.h" /Fp"C:\USERS\ACBROWN\DESKTOP\FRAMEWORK\DEBUG\RM_FRAMEWORK.PCH" /Fo"C:\USERS\ACBROWN\DESKTOP\FRAMEWORK\DEBUG\\" /Fd"C:\USERS\ACBROWN\DESKTOP\FRAMEWORK\DEBUG\RM_FRAMEWORK.PDB" /Gd /TP /analyze- C:\USERS\ACBROWN\DESKTOP\FRAMEWORK\SRC\TRANSFORM.CPP
^C:\USERS\ACBROWN\DESKTOP\FRAMEWORK\SRC\VECTOR.CPP
/c /IC:\USERS\ACBROWN\DESKTOP\FRAMEWORK\/INCLUDE /ZI /nologo /W3 /WX- /Od /Oy- /D WIN32 /D _DEBUG /D _WINDOWS /D _MBCS /Gm /EHsc /RTC1 /MDd /GS /fp:precise /Zc:wchar_t /Zc:forScope /Zc:inline /Yu"stdafx.h" /Fp"C:\USERS\ACBROWN\DESKTOP\FRAMEWORK\DEBUG\RM_FRAMEWORK.PCH" /Fo"C:\USERS\ACBROWN\DESKTOP\FRAMEWORK\DEBUG\\" /Fd"C:\USERS\ACBROWN\DESKTOP\FRAMEWORK\DEBUG\RM_FRAMEWORK.PDB" /Gd /TP /analyze- C:\USERS\ACBROWN\DESKTOP\FRAMEWORK\SRC\VECTOR.CPP
