^C:\USERS\ACBROWN\DESKTOP\FRAMEWORK\DEBUG\AGENTBEHAVIOR.OBJ|C:\USERS\ACBROWN\DESKTOP\FRAMEWORK\DEBUG\C3DSHAPE.OBJ|C:\USERS\ACBROWN\DESKTOP\FRAMEWORK\DEBUG\CAMERA.OBJ|C:\USERS\ACBROWN\DESKTOP\FRAMEWORK\DEBUG\COLOURMATERIAL.OBJ|C:\USERS\ACBROWN\DESKTOP\FRAMEWORK\DEBUG\DEBUGLOG.OBJ|C:\USERS\ACBROWN\DESKTOP\FRAMEWORK\DEBUG\FACECAMERABEHAVIOR.OBJ|C:\USERS\ACBROWN\DESKTOP\FRAMEWORK\DEBUG\FPSCAMERABEHAVIOR.OBJ|C:\USERS\ACBROWN\DESKTOP\FRAMEWORK\DEBUG\GAME.OBJ|C:\USERS\ACBROWN\DESKTOP\FRAMEWORK\DEBUG\GAMEOBJECT.OBJ|C:\USERS\ACBROWN\DESKTOP\FRAMEWORK\DEBUG\GRAPHICS.OBJ|C:\USERS\ACBROWN\DESKTOP\FRAMEWORK\DEBUG\IBEHAVIOR.OBJ|C:\USERS\ACBROWN\DESKTOP\FRAMEWORK\DEBUG\ICOMPONENT.OBJ|C:\USERS\ACBROWN\DESKTOP\FRAMEWORK\DEBUG\IMATERIAL.OBJ|C:\USERS\ACBROWN\DESKTOP\FRAMEWORK\DEBUG\IMOUSELISTENER.OBJ|C:\USERS\ACBROWN\DESKTOP\FRAMEWORK\DEBUG\INPUT.OBJ|C:\USERS\ACBROWN\DESKTOP\FRAMEWORK\DEBUG\IRENDERABLE.OBJ|C:\USERS\ACBROWN\DESKTOP\FRAMEWORK\DEBUG\LITMATERIAL.OBJ|C:\USERS\ACBROWN\DESKTOP\FRAMEWORK\DEBUG\MESHRENDERABLE.OBJ|C:\USERS\ACBROWN\DESKTOP\FRAMEWORK\DEBUG\MISSILEBEHAVIOR.OBJ|C:\USERS\ACBROWN\DESKTOP\FRAMEWORK\DEBUG\MOUSEMANAGER.OBJ|C:\USERS\ACBROWN\DESKTOP\FRAMEWORK\DEBUG\NODE.OBJ|C:\USERS\ACBROWN\DESKTOP\FRAMEWORK\DEBUG\PLAYERBEHAVIOR.OBJ|C:\USERS\ACBROWN\DESKTOP\FRAMEWORK\DEBUG\RM_FRAMEWORK.RES|C:\USERS\ACBROWN\DESKTOP\FRAMEWORK\DEBUG\SKYBOXMATERIAL.OBJ|C:\USERS\ACBROWN\DESKTOP\FRAMEWORK\DEBUG\SKYBOXRENDERABLE.OBJ|C:\USERS\ACBROWN\DESKTOP\FRAMEWORK\DEBUG\SPINBEHAVIOR.OBJ|C:\USERS\ACBROWN\DESKTOP\FRAMEWORK\DEBUG\SPRITE.OBJ|C:\USERS\ACBROWN\DESKTOP\FRAMEWORK\DEBUG\SPRITESHEETANIMATIONBEHAVIOR.OBJ|C:\USERS\ACBROWN\DESKTOP\FRAMEWORK\DEBUG\STDAFX.OBJ|C:\USERS\ACBROWN\DESKTOP\FRAMEWORK\DEBUG\TAGMANAGER.OBJ|C:\USERS\ACBROWN\DESKTOP\FRAMEWORK\DEBUG\TERRAINRENDERABLE.OBJ|C:\USERS\ACBROWN\DESKTOP\FRAMEWORK\DEBUG\TEXTURELOADER.OBJ|C:\USERS\ACBROWN\DESKTOP\FRAMEWORK\DEBUG\TIMER.OBJ|C:\USERS\ACBROWN\DESKTOP\FRAMEWORK\DEBUG\TRANSFORM.OBJ|C:\USERS\ACBROWN\DESKTOP\FRAMEWORK\DEBUG\VECTOR.OBJ
C:\USERS\ACBROWN\DESKTOP\FRAMEWORK\DEBUG\RM_FRAMEWORK.RES
C:\WINDOWS\SYSTEM32\RSAENH.DLL
C:\WINDOWS\GLOBALIZATION\SORTING\SORTDEFAULT.NLS
C:\WINDOWS\SYSTEM32\TZRES.DLL
C:\USERS\ACBROWN\DESKTOP\FRAMEWORK\DEBUG\AGENTBEHAVIOR.OBJ
C:\USERS\ACBROWN\DESKTOP\FRAMEWORK\DEBUG\C3DSHAPE.OBJ
C:\USERS\ACBROWN\DESKTOP\FRAMEWORK\DEBUG\CAMERA.OBJ
C:\USERS\ACBROWN\DESKTOP\FRAMEWORK\DEBUG\COLOURMATERIAL.OBJ
C:\USERS\ACBROWN\DESKTOP\FRAMEWORK\DEBUG\DEBUGLOG.OBJ
C:\USERS\ACBROWN\DESKTOP\FRAMEWORK\DEBUG\FACECAMERABEHAVIOR.OBJ
C:\USERS\ACBROWN\DESKTOP\FRAMEWORK\DEBUG\FPSCAMERABEHAVIOR.OBJ
C:\USERS\ACBROWN\DESKTOP\FRAMEWORK\DEBUG\GAME.OBJ
C:\USERS\ACBROWN\DESKTOP\FRAMEWORK\DEBUG\GAMEOBJECT.OBJ
C:\USERS\ACBROWN\DESKTOP\FRAMEWORK\DEBUG\GRAPHICS.OBJ
C:\USERS\ACBROWN\DESKTOP\FRAMEWORK\DEBUG\IBEHAVIOR.OBJ
C:\USERS\ACBROWN\DESKTOP\FRAMEWORK\DEBUG\ICOMPONENT.OBJ
C:\USERS\ACBROWN\DESKTOP\FRAMEWORK\DEBUG\IMATERIAL.OBJ
C:\USERS\ACBROWN\DESKTOP\FRAMEWORK\DEBUG\IMOUSELISTENER.OBJ
C:\USERS\ACBROWN\DESKTOP\FRAMEWORK\DEBUG\INPUT.OBJ
C:\USERS\ACBROWN\DESKTOP\FRAMEWORK\DEBUG\IRENDERABLE.OBJ
C:\USERS\ACBROWN\DESKTOP\FRAMEWORK\DEBUG\LITMATERIAL.OBJ
C:\USERS\ACBROWN\DESKTOP\FRAMEWORK\DEBUG\MESHRENDERABLE.OBJ
C:\USERS\ACBROWN\DESKTOP\FRAMEWORK\DEBUG\MISSILEBEHAVIOR.OBJ
C:\USERS\ACBROWN\DESKTOP\FRAMEWORK\DEBUG\MOUSEMANAGER.OBJ
C:\USERS\ACBROWN\DESKTOP\FRAMEWORK\DEBUG\NODE.OBJ
C:\USERS\ACBROWN\DESKTOP\FRAMEWORK\DEBUG\PLAYERBEHAVIOR.OBJ
C:\USERS\ACBROWN\DESKTOP\FRAMEWORK\DEBUG\SKYBOXMATERIAL.OBJ
C:\USERS\ACBROWN\DESKTOP\FRAMEWORK\DEBUG\SKYBOXRENDERABLE.OBJ
C:\USERS\ACBROWN\DESKTOP\FRAMEWORK\DEBUG\SPINBEHAVIOR.OBJ
C:\USERS\ACBROWN\DESKTOP\FRAMEWORK\DEBUG\SPRITE.OBJ
C:\USERS\ACBROWN\DESKTOP\FRAMEWORK\DEBUG\SPRITESHEETANIMATIONBEHAVIOR.OBJ
C:\USERS\ACBROWN\DESKTOP\FRAMEWORK\DEBUG\TAGMANAGER.OBJ
C:\USERS\ACBROWN\DESKTOP\FRAMEWORK\DEBUG\TERRAINRENDERABLE.OBJ
C:\USERS\ACBROWN\DESKTOP\FRAMEWORK\DEBUG\TEXTURELOADER.OBJ
C:\USERS\ACBROWN\DESKTOP\FRAMEWORK\DEBUG\STDAFX.OBJ
C:\USERS\ACBROWN\DESKTOP\FRAMEWORK\DEBUG\TIMER.OBJ
C:\USERS\ACBROWN\DESKTOP\FRAMEWORK\DEBUG\TRANSFORM.OBJ
C:\USERS\ACBROWN\DESKTOP\FRAMEWORK\DEBUG\VECTOR.OBJ
C:\PROGRAM FILES (X86)\MICROSOFT VISUAL STUDIO 14.0\VC\BIN\1033\LINKUI.DLL
