^C:\USERS\ACBROWN\DESKTOP\FRAMEWORK\RM_FRAMEWORK.RC
C:\USERS\ACBROWN\DESKTOP\FRAMEWORK\RESOURCE.H
C:\USERS\ACBROWN\DESKTOP\FRAMEWORK\TARGETVER.H
C:\PROGRAM FILES (X86)\WINDOWS KITS\10\INCLUDE\10.0.10240.0\UM\WINDOWS.H
C:\PROGRAM FILES (X86)\WINDOWS KITS\10\INCLUDE\10.0.10240.0\SHARED\WINAPIFAMILY.H
C:\PROGRAM FILES (X86)\WINDOWS KITS\10\INCLUDE\10.0.10240.0\SHARED\WINPACKAGEFAMILY.H
C:\PROGRAM FILES (X86)\WINDOWS KITS\10\INCLUDE\10.0.10240.0\SHARED\SDKDDKVER.H
C:\PROGRAM FILES (X86)\WINDOWS KITS\10\INCLUDE\10.0.10240.0\UM\WINRESRC.H
C:\PROGRAM FILES (X86)\WINDOWS KITS\10\INCLUDE\10.0.10240.0\UM\WINUSER.RH
C:\PROGRAM FILES (X86)\WINDOWS KITS\10\INCLUDE\10.0.10240.0\UM\COMMCTRL.RH
C:\PROGRAM FILES (X86)\WINDOWS KITS\10\INCLUDE\10.0.10240.0\UM\DDE.RH
C:\PROGRAM FILES (X86)\WINDOWS KITS\10\INCLUDE\10.0.10240.0\UM\WINNT.RH
C:\PROGRAM FILES (X86)\WINDOWS KITS\10\INCLUDE\10.0.10240.0\UM\DLGS.H
C:\PROGRAM FILES (X86)\WINDOWS KITS\10\INCLUDE\10.0.10240.0\UM\WINVER.H
C:\PROGRAM FILES (X86)\WINDOWS KITS\10\INCLUDE\10.0.10240.0\SHARED\SPECSTRINGS.H
C:\PROGRAM FILES (X86)\MICROSOFT VISUAL STUDIO 14.0\VC\INCLUDE\SAL.H
C:\PROGRAM FILES (X86)\MICROSOFT VISUAL STUDIO 14.0\VC\INCLUDE\CONCURRENCYSAL.H
C:\PROGRAM FILES (X86)\WINDOWS KITS\10\INCLUDE\10.0.10240.0\SHARED\DRIVERSPECS.H
C:\PROGRAM FILES (X86)\WINDOWS KITS\10\INCLUDE\10.0.10240.0\SHARED\SDV_DRIVERSPECS.H
C:\PROGRAM FILES (X86)\WINDOWS KITS\10\INCLUDE\10.0.10240.0\UM\VERRSRC.H
C:\USERS\ACBROWN\DESKTOP\FRAMEWORK\RM_FRAMEWORK.ICO
C:\USERS\ACBROWN\DESKTOP\FRAMEWORK\SMALL.ICO
