^C:\USERS\ACBROWN\DESKTOP\FRAMEWORK\MYGAMEPROJECT\STDAFX.CPP
C:\USERS\ACBROWN\DESKTOP\FRAMEWORK\MYGAMEPROJECT\DEBUG\MYGAMEPROJECT.PCH
C:\USERS\ACBROWN\DESKTOP\FRAMEWORK\MYGAMEPROJECT\DEBUG\VC140.PDB
C:\USERS\ACBROWN\DESKTOP\FRAMEWORK\MYGAMEPROJECT\DEBUG\VC140.IDB
C:\USERS\ACBROWN\DESKTOP\FRAMEWORK\MYGAMEPROJECT\DEBUG\STDAFX.OBJ
^C:\USERS\ACBROWN\DESKTOP\FRAMEWORK\MYGAMEPROJECT\MYGAME.CPP|C:\USERS\ACBROWN\DESKTOP\FRAMEWORK\MYGAMEPROJECT\MYGAMEPROJECT.CPP
C:\USERS\ACBROWN\DESKTOP\FRAMEWORK\MYGAMEPROJECT\DEBUG\VC140.PDB
C:\USERS\ACBROWN\DESKTOP\FRAMEWORK\MYGAMEPROJECT\DEBUG\VC140.IDB
C:\USERS\ACBROWN\DESKTOP\FRAMEWORK\MYGAMEPROJECT\DEBUG\MYGAME.OBJ
C:\USERS\ACBROWN\DESKTOP\FRAMEWORK\MYGAMEPROJECT\DEBUG\MYGAMEPROJECT.OBJ
^C:\USERS\ACBROWN\DESKTOP\FRAMEWORK\MYGAMEPROJECT\MYGAME.CPP
C:\USERS\ACBROWN\DESKTOP\FRAMEWORK\MYGAMEPROJECT\DEBUG\VC140.PDB
^C:\USERS\ACBROWN\DESKTOP\FRAMEWORK\MYGAMEPROJECT\MYGAMEPROJECT.CPP
C:\USERS\ACBROWN\DESKTOP\FRAMEWORK\MYGAMEPROJECT\DEBUG\VC140.PDB
