^C:\USERS\ACBROWN\DESKTOP\FRAMEWORK\MYGAMEPROJECT\DEBUG\MYGAME.OBJ|C:\USERS\ACBROWN\DESKTOP\FRAMEWORK\MYGAMEPROJECT\DEBUG\MYGAMEPROJECT.OBJ|C:\USERS\ACBROWN\DESKTOP\FRAMEWORK\MYGAMEPROJECT\DEBUG\MYGAMEPROJECT.RES|C:\USERS\ACBROWN\DESKTOP\FRAMEWORK\MYGAMEPROJECT\DEBUG\STDAFX.OBJ
C:\USERS\ACBROWN\DESKTOP\FRAMEWORK\MYGAMEPROJECT\DEBUG\MYGAMEPROJECT.ILK
C:\USERS\ACBROWN\DESKTOP\FRAMEWORK\MYGAMEPROJECT\DEBUG\MYGAMEPROJECT.EXE
C:\USERS\ACBROWN\DESKTOP\FRAMEWORK\MYGAMEPROJECT\DEBUG\MYGAMEPROJECT.PDB
